<svg width="16" height="17" viewBox="0 0 16 17" fill="none" xmlns="http://www.w3.org/2000/svg">
<path d="M13.5944 15.2169H13.6444V15.1669C13.6444 12.1133 11.1019 9.63311 7.98091 9.63311C4.85921 9.63311 2.3167 12.1133 2.3167 15.1669V15.2169H2.3667H3.71773H3.76773V15.1669C3.76773 12.9175 5.65492 11.0841 7.98024 11.0841C10.3056 11.0841 12.1934 12.9168 12.1934 15.1669V15.2169H12.2434H13.5944Z" fill="#292929" stroke="#292929" stroke-width="0.1"/>
<path d="M7.9809 9.29391C5.91119 9.29391 4.22638 7.6084 4.22637 5.53872L7.9809 9.29391ZM7.9809 9.29391C10.0519 9.29391 11.7368 7.60976 11.7368 5.5387C11.7368 3.46764 10.0519 1.7835 7.9809 1.7835C5.91053 1.7835 4.22569 3.46832 4.22637 5.5387L7.9809 9.29391ZM5.67672 5.5387C5.67672 4.26797 6.71017 3.23453 7.9809 3.23453C9.25098 3.23453 10.2857 4.268 10.2857 5.5387C10.2857 6.80942 9.25231 7.84287 7.9809 7.84287C6.71017 7.84287 5.67672 6.80943 5.67672 5.5387Z" fill="#292929" stroke="#292929" stroke-width="0.1"/>
</svg>
